TGL kmeans with 'tidy' output — TGL_kmeans_tidy • tglkmeans
…
#> KMEans: iter 17 changed 2
#> KMEans: iter 17
#> KMEans: iter 18 changed 0
km
#> $centers
#> # A tibble: 5 x 3
#>   clust        V1        V2
#> 1     1 2.0249572 1.9881035
#> 2     2 4.0749803 4.0160012
#> 3     3 0.9989796 0.9307694
#> 4     4 5.0027680 5.0353432
#> 5     5 3.0264306 3.0947533
#> 
#> $cluster
#> # A tibble: 500 x 2
#>   id clust
#> 1  1     3
#> 2  2     3
#> 3  3     3
#> 4  4     3
#> 5  5     3
#> 6  6     3
#> # ... with 494 more rows
…
