basic usage
…
## The following objects are masked from 'package:base':
## 
##     intersect, setdiff, setequal, union

library(ggplot2)
library(tglkmeans)

First, let’s create 5 clusters normally distributed around 1 to 5, with sd of 0.3:

data <- simulate_data(n=100, sd=0.3, nclust=5, dims=2)
data

## # A tibble: 500 x 4
##       id    V1    V2 true_clust
##    <int> <dbl> <dbl>      <int>
##  1     1 0.517 0.525          1
##  2     2 0.983 0.791          1
##  3     3 0.513 0.626          1
##  4     4 1.22  1.33           1
##  5     5 1.14  0.991          1
##  6     6 1.16  0.848          1
##  7     7 1.000 0.811          1
##  8     8 0.718 1.16           1
##  9     9 1.52  0.823          1
## 10    10 1.17  1.26           1
## # ... with 490 more rows
…
clusters are numbered according to order_func (see ‘Custom cluster ordering’ section).

km$cluster contains tibble with id column with the observation id (1:n if no id column was supplied), and clust column with the observation assigned cluster:

km$cluster

## # A tibble: 500 x 2
##    id    clust
##    <chr> <int>
##  1 1         2
##  2 2         2
##  3 3         2
##  4 4         2
##  5 5         2
##  6 6         2
##  7 7         2
##  8 8         2
##  9 9         2
## 10 10        2
## # ... with 490 more rows
…
Missing data

tglkmeans can deal with missing data, as long as at least one dimension is not missing. for example:

data$V1[sample(1:nrow(data), round(nrow(data)*0.2))] <- NA
data

## # A tibble: 500 x 4
##       id     V1    V2 true_clust
##    <int>  <dbl> <dbl>      <int>
##  1     1 NA     0.525          1
##  2     2  0.983 0.791          1
##  3     3  0.513 0.626          1
##  4     4  1.22  1.33           1
##  5     5  1.14  0.991          1
##  6     6 NA     0.848          1
##  7     7  1.000 0.811          1
##  8     8  0.718 1.16           1
##  9     9  1.52  0.823          1
## 10    10  1.17  1.26           1
## # ... with 490 more rows
…
