basic usage • tglkmeans
…
## The following objects are masked from 'package:base':
## 
##     intersect, setdiff, setequal, union

library(ggplot2)
library(tglkmeans)

First, let’s create 5 clusters normally distributed around 1 to 5, with sd of 0.3:

data <- simulate_data(n=100, sd=0.3, nclust=5, dims=2)
data

## # A tibble: 500 x 4
##       id    V1    V2 true_clust
##    <int> <dbl> <dbl>      <int>
##  1     1 0.394 0.751          1
##  2     2 1.05  1.21           1
##  3     3 1.60  0.633          1
##  4     4 0.511 0.718          1
##  5     5 0.840 0.721          1
##  6     6 0.763 0.524          1
##  7     7 0.963 0.872          1
##  8     8 1.35  1.23           1
##  9     9 1.04  0.699          1
## 10    10 0.830 1.01           1
## # … with 490 more rows
…
clusters are numbered according to order_func (see ‘Custom cluster ordering’ section).

km$cluster contains tibble with id column with the observation id (1:n if no id column was supplied), and clust column with the observation assigned cluster:

km$cluster

## # A tibble: 500 x 2
##    id    clust
##    <chr> <int>
##  1 1         4
##  2 2         4
##  3 3         4
##  4 4         4
##  5 5         4
##  6 6         4
##  7 7         4
##  8 8         4
##  9 9         4
## 10 10        4
## # … with 490 more rows
…
Missing data

tglkmeans can deal with missing data, as long as at least one dimension is not missing. for example:

data$V1[sample(1:nrow(data), round(nrow(data)*0.2))] <- NA
data

## # A tibble: 500 x 4
##       id     V1    V2 true_clust
##    <int>  <dbl> <dbl>      <int>
##  1     1  0.394 0.751          1
##  2     2 NA     1.21           1
##  3     3  1.60  0.633          1
##  4     4  0.511 0.718          1
##  5     5 NA     0.721          1
##  6     6  0.763 0.524          1
##  7     7 NA     0.872          1
##  8     8  1.35  1.23           1
##  9     9  1.04  0.699          1
## 10    10 NA     1.01           1
## # … with 490 more rows
…
