Bootstrap clustering — bootclust • tglkmeans
…
  hc:hierachical clustering of coclust_frac matrix.

  coclust_score:(if add_scores == TRUE) tibble with score for each cluster in for each value of ks.

    Examples

data <- simulate_data(n = 200, sd = 0.6, nclust = 5, dims = 2, add_true_clust = TRUE)
bt <- bootclust(data %>% select(id, starts_with("V")), k_boot = 5, N_boot = 100, boot_ratio = 0.75)
#> bootstrapping
#> clustering bootstrapping results
#> calculating score for each k

bt$mat
#> # A tibble: 1,000 x 3
#>       id    V1    V2
#>    <int> <dbl> <dbl>
#>  1     1 0.358 2.05 
#>  2     2 0.669 1.09 
#>  3     3 1.03  1.39 
#>  4     4 0.824 0.981
#>  5     5 0.387 0.761
#>  6     6 0.544 1.50 
#>  7     7 1.68  1.62 
#>  8     8 2.67  0.965
#>  9     9 1.17  0.699
#> 10    10 1.02  1.03 
#> # … with 990 more rows
…
#> 2 0.8817969 1.0000000 0.9250820 0.8838143 0.8908291
#> 3 0.8248100 0.9250820 1.0000000 0.9613295 0.9688622
#> 4 0.8264839 0.8838143 0.9613295 1.0000000 0.9933702
#> 5 0.8324510 0.8908291 0.9688622 0.9933702 1.0000000
bt$hc
#> 
#> Call:
#> hclust(d = tgstat::tgs_dist(cm), method = "ward.D2")
#> 
#> Cluster method   : ward.D2 
#> Distance         : euclidian 
#> Number of objects: 1000 
#> 
bt$coclust_score
#> # A tibble: 24,000 x 4
#>    k     i     clust score
#>    <fct> <chr> <int> <dbl>
#>  1 2     1         1 1.000
#>  2 2     2         1 1    
#>  3 2     3         1 1    
#>  4 2     4         1 1    
#>  5 2     5         1 1    
#>  6 2     6         1 1    
#>  7 2     7         1 0.956
#>  8 2     8         1 0.955
#>  9 2     9         1 1    
#> 10 2     10        1 1    
#> # … with 23,990 more rows
…
