TGL kmeans with 'tidy' output — TGL_kmeans_tidy • tglkmeans
…
#> KMEans: iter 2
#> KMEans: iter 3 changed 0
km
#> $centers
#> # A tibble: 5 x 3
#>   clust    V1    V2
#>   <int> <dbl> <dbl>
#> 1     1 2.97  2.98 
#> 2     2 4.98  4.98 
#> 3     3 0.975 0.998
#> 4     4 4.02  4.01 
#> 5     5 2.05  1.98 
#> 
#> $cluster
#> # A tibble: 500 x 2
#>    id    clust
#>    <chr> <int>
#>  1 1         3
#>  2 2         3
#>  3 3         3
#>  4 4         3
#>  5 5         3
#>  6 6         3
#>  7 7         3
#>  8 8         3
#>  9 9         3
#> 10 10        3
#> # … with 490 more rows
…
