basic usage • tglkmeans
…
clusters are numbered according to order_func (see ‘Custom cluster ordering’ section).

km$cluster contains tibble with id column with the observation id (1:n if no id column was supplied), and clust column with the observation assigned cluster:

km$cluster

## # A tibble: 500 × 2
##    id    clust
##    <chr> <int>
##  1 1         5
##  2 2         5
##  3 3         5
##  4 4         5
##  5 5         5
##  6 6         5
##  7 7         5
##  8 8         5
##  9 9         5
## 10 10        5
## # ℹ 490 more rows
…
